2019-04-22 16:38:01 [text] GET - url: /specific_prices?schema=blank RETURN HTTP BODY
<?xml version="1.0" encoding="UTF-8"?>
<prestashop xmlns:xlink="http://www.w3.org/1999/xlink">
<specific_price>
	<id></id>
	<id_shop_group></id_shop_group>
	<id_shop></id_shop>
	<id_cart></id_cart>
	<id_product></id_product>
	<id_product_attribute></id_product_attribute>
	<id_currency></id_currency>
	<id_country></id_country>
	<id_group></id_group>
	<id_customer></id_customer>
	<id_specific_price_rule></id_specific_price_rule>
	<price></price>
	<from_quantity></from_quantity>
	<reduction></reduction>
	<reduction_tax></reduction_tax>
	<reduction_type></reduction_type>
	<from></from>
	<to></to>
</specific_price>
</prestashop>



2019-04-22 16:38:02 [text] GET - url: /specific_prices/?display=full&filter[id_product]=[103854157] RETURN HTTP BODY
<?xml version="1.0" encoding="UTF-8"?>
<prestashop xmlns:xlink="http://www.w3.org/1999/xlink">
<specific_prices>
</specific_prices>
</prestashop>



2019-04-22 16:41:38 [text] GET - url: /specific_prices?schema=blank RETURN HTTP BODY
<?xml version="1.0" encoding="UTF-8"?>
<prestashop xmlns:xlink="http://www.w3.org/1999/xlink">
<specific_price>
	<id></id>
	<id_shop_group></id_shop_group>
	<id_shop></id_shop>
	<id_cart></id_cart>
	<id_product></id_product>
	<id_product_attribute></id_product_attribute>
	<id_currency></id_currency>
	<id_country></id_country>
	<id_group></id_group>
	<id_customer></id_customer>
	<id_specific_price_rule></id_specific_price_rule>
	<price></price>
	<from_quantity></from_quantity>
	<reduction></reduction>
	<reduction_tax></reduction_tax>
	<reduction_type></reduction_type>
	<from></from>
	<to></to>
</specific_price>
</prestashop>



2019-04-22 16:41:39 [text] GET - url: /specific_prices/?display=full&filter[id_product]=[103854158] RETURN HTTP BODY
<?xml version="1.0" encoding="UTF-8"?>
<prestashop xmlns:xlink="http://www.w3.org/1999/xlink">
<specific_prices>
</specific_prices>
</prestashop>



2019-04-22 16:42:15 [text] GET - url: /specific_prices?schema=blank RETURN HTTP BODY
<?xml version="1.0" encoding="UTF-8"?>
<prestashop xmlns:xlink="http://www.w3.org/1999/xlink">
<specific_price>
	<id></id>
	<id_shop_group></id_shop_group>
	<id_shop></id_shop>
	<id_cart></id_cart>
	<id_product></id_product>
	<id_product_attribute></id_product_attribute>
	<id_currency></id_currency>
	<id_country></id_country>
	<id_group></id_group>
	<id_customer></id_customer>
	<id_specific_price_rule></id_specific_price_rule>
	<price></price>
	<from_quantity></from_quantity>
	<reduction></reduction>
	<reduction_tax></reduction_tax>
	<reduction_type></reduction_type>
	<from></from>
	<to></to>
</specific_price>
</prestashop>



2019-04-22 16:42:16 [text] GET - url: /specific_prices/?display=full&filter[id_product]=[103854159] RETURN HTTP BODY
<?xml version="1.0" encoding="UTF-8"?>
<prestashop xmlns:xlink="http://www.w3.org/1999/xlink">
<specific_prices>
</specific_prices>
</prestashop>



2019-04-22 17:33:53 [text] GET - url: /specific_prices?schema=blank RETURN HTTP BODY
<?xml version="1.0" encoding="UTF-8"?>
<prestashop xmlns:xlink="http://www.w3.org/1999/xlink">
<specific_price>
	<id></id>
	<id_shop_group></id_shop_group>
	<id_shop></id_shop>
	<id_cart></id_cart>
	<id_product></id_product>
	<id_product_attribute></id_product_attribute>
	<id_currency></id_currency>
	<id_country></id_country>
	<id_group></id_group>
	<id_customer></id_customer>
	<id_specific_price_rule></id_specific_price_rule>
	<price></price>
	<from_quantity></from_quantity>
	<reduction></reduction>
	<reduction_tax></reduction_tax>
	<reduction_type></reduction_type>
	<from></from>
	<to></to>
</specific_price>
</prestashop>



2019-04-22 17:33:54 [text] GET - url: /specific_prices/?display=full&filter[id_product]=[] RETURN HTTP BODY
<?xml version="1.0" encoding="UTF-8"?>
<prestashop xmlns:xlink="http://www.w3.org/1999/xlink">
<specific_prices>
</specific_prices>
</prestashop>



2019-04-22 17:36:06 [text] GET - url: /specific_prices?schema=blank RETURN HTTP BODY
<?xml version="1.0" encoding="UTF-8"?>
<prestashop xmlns:xlink="http://www.w3.org/1999/xlink">
<specific_price>
	<id></id>
	<id_shop_group></id_shop_group>
	<id_shop></id_shop>
	<id_cart></id_cart>
	<id_product></id_product>
	<id_product_attribute></id_product_attribute>
	<id_currency></id_currency>
	<id_country></id_country>
	<id_group></id_group>
	<id_customer></id_customer>
	<id_specific_price_rule></id_specific_price_rule>
	<price></price>
	<from_quantity></from_quantity>
	<reduction></reduction>
	<reduction_tax></reduction_tax>
	<reduction_type></reduction_type>
	<from></from>
	<to></to>
</specific_price>
</prestashop>



2019-04-22 17:36:08 [text] GET - url: /specific_prices/?display=full&filter[id_product]=[] RETURN HTTP BODY
<?xml version="1.0" encoding="UTF-8"?>
<prestashop xmlns:xlink="http://www.w3.org/1999/xlink">
<specific_prices>
</specific_prices>
</prestashop>



2019-04-22 17:41:35 [text] GET - url: /specific_prices?schema=blank RETURN HTTP BODY
<?xml version="1.0" encoding="UTF-8"?>
<prestashop xmlns:xlink="http://www.w3.org/1999/xlink">
<specific_price>
	<id></id>
	<id_shop_group></id_shop_group>
	<id_shop></id_shop>
	<id_cart></id_cart>
	<id_product></id_product>
	<id_product_attribute></id_product_attribute>
	<id_currency></id_currency>
	<id_country></id_country>
	<id_group></id_group>
	<id_customer></id_customer>
	<id_specific_price_rule></id_specific_price_rule>
	<price></price>
	<from_quantity></from_quantity>
	<reduction></reduction>
	<reduction_tax></reduction_tax>
	<reduction_type></reduction_type>
	<from></from>
	<to></to>
</specific_price>
</prestashop>



2019-04-22 17:41:35 [text] GET - url: /specific_prices/?display=full&filter[id_product]=[] RETURN HTTP BODY
<?xml version="1.0" encoding="UTF-8"?>
<prestashop xmlns:xlink="http://www.w3.org/1999/xlink">
<specific_prices>
</specific_prices>
</prestashop>



2019-04-22 17:41:53 [text] GET - url: /specific_prices?schema=blank RETURN HTTP BODY
<?xml version="1.0" encoding="UTF-8"?>
<prestashop xmlns:xlink="http://www.w3.org/1999/xlink">
<specific_price>
	<id></id>
	<id_shop_group></id_shop_group>
	<id_shop></id_shop>
	<id_cart></id_cart>
	<id_product></id_product>
	<id_product_attribute></id_product_attribute>
	<id_currency></id_currency>
	<id_country></id_country>
	<id_group></id_group>
	<id_customer></id_customer>
	<id_specific_price_rule></id_specific_price_rule>
	<price></price>
	<from_quantity></from_quantity>
	<reduction></reduction>
	<reduction_tax></reduction_tax>
	<reduction_type></reduction_type>
	<from></from>
	<to></to>
</specific_price>
</prestashop>



2019-04-22 17:41:54 [text] GET - url: /specific_prices/?display=full&filter[id_product]=[] RETURN HTTP BODY
<?xml version="1.0" encoding="UTF-8"?>
<prestashop xmlns:xlink="http://www.w3.org/1999/xlink">
<specific_prices>
</specific_prices>
</prestashop>



2019-04-22 17:46:49 [text] GET - url: /specific_prices?schema=blank RETURN HTTP BODY
<?xml version="1.0" encoding="UTF-8"?>
<prestashop xmlns:xlink="http://www.w3.org/1999/xlink">
<specific_price>
	<id></id>
	<id_shop_group></id_shop_group>
	<id_shop></id_shop>
	<id_cart></id_cart>
	<id_product></id_product>
	<id_product_attribute></id_product_attribute>
	<id_currency></id_currency>
	<id_country></id_country>
	<id_group></id_group>
	<id_customer></id_customer>
	<id_specific_price_rule></id_specific_price_rule>
	<price></price>
	<from_quantity></from_quantity>
	<reduction></reduction>
	<reduction_tax></reduction_tax>
	<reduction_type></reduction_type>
	<from></from>
	<to></to>
</specific_price>
</prestashop>



2019-04-22 17:46:49 [text] GET - url: /specific_prices/?display=full&filter[id_product]=[] RETURN HTTP BODY
<?xml version="1.0" encoding="UTF-8"?>
<prestashop xmlns:xlink="http://www.w3.org/1999/xlink">
<specific_prices>
</specific_prices>
</prestashop>



2019-04-22 17:59:53 [text] GET - url: /specific_prices?schema=blank RETURN HTTP BODY
<?xml version="1.0" encoding="UTF-8"?>
<prestashop xmlns:xlink="http://www.w3.org/1999/xlink">
<specific_price>
	<id></id>
	<id_shop_group></id_shop_group>
	<id_shop></id_shop>
	<id_cart></id_cart>
	<id_product></id_product>
	<id_product_attribute></id_product_attribute>
	<id_currency></id_currency>
	<id_country></id_country>
	<id_group></id_group>
	<id_customer></id_customer>
	<id_specific_price_rule></id_specific_price_rule>
	<price></price>
	<from_quantity></from_quantity>
	<reduction></reduction>
	<reduction_tax></reduction_tax>
	<reduction_type></reduction_type>
	<from></from>
	<to></to>
</specific_price>
</prestashop>



2019-04-22 17:59:55 [text] GET - url: /specific_prices/?display=full&filter[id_product]=[] RETURN HTTP BODY
<?xml version="1.0" encoding="UTF-8"?>
<prestashop xmlns:xlink="http://www.w3.org/1999/xlink">
<specific_prices>
</specific_prices>
</prestashop>



2019-04-22 18:00:50 [text] GET - url: /specific_prices?schema=blank RETURN HTTP BODY
<?xml version="1.0" encoding="UTF-8"?>
<prestashop xmlns:xlink="http://www.w3.org/1999/xlink">
<specific_price>
	<id></id>
	<id_shop_group></id_shop_group>
	<id_shop></id_shop>
	<id_cart></id_cart>
	<id_product></id_product>
	<id_product_attribute></id_product_attribute>
	<id_currency></id_currency>
	<id_country></id_country>
	<id_group></id_group>
	<id_customer></id_customer>
	<id_specific_price_rule></id_specific_price_rule>
	<price></price>
	<from_quantity></from_quantity>
	<reduction></reduction>
	<reduction_tax></reduction_tax>
	<reduction_type></reduction_type>
	<from></from>
	<to></to>
</specific_price>
</prestashop>



2019-04-22 18:00:51 [text] GET - url: /specific_prices/?display=full&filter[id_product]=[] RETURN HTTP BODY
<?xml version="1.0" encoding="UTF-8"?>
<prestashop xmlns:xlink="http://www.w3.org/1999/xlink">
<specific_prices>
</specific_prices>
</prestashop>



2019-04-22 18:01:38 [text] GET - url: /specific_prices?schema=blank RETURN HTTP BODY
<?xml version="1.0" encoding="UTF-8"?>
<prestashop xmlns:xlink="http://www.w3.org/1999/xlink">
<specific_price>
	<id></id>
	<id_shop_group></id_shop_group>
	<id_shop></id_shop>
	<id_cart></id_cart>
	<id_product></id_product>
	<id_product_attribute></id_product_attribute>
	<id_currency></id_currency>
	<id_country></id_country>
	<id_group></id_group>
	<id_customer></id_customer>
	<id_specific_price_rule></id_specific_price_rule>
	<price></price>
	<from_quantity></from_quantity>
	<reduction></reduction>
	<reduction_tax></reduction_tax>
	<reduction_type></reduction_type>
	<from></from>
	<to></to>
</specific_price>
</prestashop>



2019-04-22 18:01:39 [text] GET - url: /specific_prices/?display=full&filter[id_product]=[] RETURN HTTP BODY
<?xml version="1.0" encoding="UTF-8"?>
<prestashop xmlns:xlink="http://www.w3.org/1999/xlink">
<specific_prices>
</specific_prices>
</prestashop>



2019-04-22 18:04:20 [text] GET - url: /specific_prices?schema=blank RETURN HTTP BODY
<?xml version="1.0" encoding="UTF-8"?>
<prestashop xmlns:xlink="http://www.w3.org/1999/xlink">
<specific_price>
	<id></id>
	<id_shop_group></id_shop_group>
	<id_shop></id_shop>
	<id_cart></id_cart>
	<id_product></id_product>
	<id_product_attribute></id_product_attribute>
	<id_currency></id_currency>
	<id_country></id_country>
	<id_group></id_group>
	<id_customer></id_customer>
	<id_specific_price_rule></id_specific_price_rule>
	<price></price>
	<from_quantity></from_quantity>
	<reduction></reduction>
	<reduction_tax></reduction_tax>
	<reduction_type></reduction_type>
	<from></from>
	<to></to>
</specific_price>
</prestashop>



2019-04-22 18:04:21 [text] GET - url: /specific_prices/?display=full&filter[id_product]=[] RETURN HTTP BODY
<?xml version="1.0" encoding="UTF-8"?>
<prestashop xmlns:xlink="http://www.w3.org/1999/xlink">
<specific_prices>
</specific_prices>
</prestashop>



2019-04-22 18:05:13 [text] GET - url: /specific_prices?schema=blank RETURN HTTP BODY
<?xml version="1.0" encoding="UTF-8"?>
<prestashop xmlns:xlink="http://www.w3.org/1999/xlink">
<specific_price>
	<id></id>
	<id_shop_group></id_shop_group>
	<id_shop></id_shop>
	<id_cart></id_cart>
	<id_product></id_product>
	<id_product_attribute></id_product_attribute>
	<id_currency></id_currency>
	<id_country></id_country>
	<id_group></id_group>
	<id_customer></id_customer>
	<id_specific_price_rule></id_specific_price_rule>
	<price></price>
	<from_quantity></from_quantity>
	<reduction></reduction>
	<reduction_tax></reduction_tax>
	<reduction_type></reduction_type>
	<from></from>
	<to></to>
</specific_price>
</prestashop>



2019-04-22 18:05:14 [text] GET - url: /specific_prices/?display=full&filter[id_product]=[] RETURN HTTP BODY
<?xml version="1.0" encoding="UTF-8"?>
<prestashop xmlns:xlink="http://www.w3.org/1999/xlink">
<specific_prices>
</specific_prices>
</prestashop>



2019-04-22 18:06:51 [text] GET - url: /specific_prices?schema=blank RETURN HTTP BODY
<?xml version="1.0" encoding="UTF-8"?>
<prestashop xmlns:xlink="http://www.w3.org/1999/xlink">
<specific_price>
	<id></id>
	<id_shop_group></id_shop_group>
	<id_shop></id_shop>
	<id_cart></id_cart>
	<id_product></id_product>
	<id_product_attribute></id_product_attribute>
	<id_currency></id_currency>
	<id_country></id_country>
	<id_group></id_group>
	<id_customer></id_customer>
	<id_specific_price_rule></id_specific_price_rule>
	<price></price>
	<from_quantity></from_quantity>
	<reduction></reduction>
	<reduction_tax></reduction_tax>
	<reduction_type></reduction_type>
	<from></from>
	<to></to>
</specific_price>
</prestashop>



2019-04-22 18:06:52 [text] GET - url: /specific_prices/?display=full&filter[id_product]=[] RETURN HTTP BODY
<?xml version="1.0" encoding="UTF-8"?>
<prestashop xmlns:xlink="http://www.w3.org/1999/xlink">
<specific_prices>
</specific_prices>
</prestashop>



2019-04-22 18:08:40 [text] GET - url: /specific_prices?schema=blank RETURN HTTP BODY
<?xml version="1.0" encoding="UTF-8"?>
<prestashop xmlns:xlink="http://www.w3.org/1999/xlink">
<specific_price>
	<id></id>
	<id_shop_group></id_shop_group>
	<id_shop></id_shop>
	<id_cart></id_cart>
	<id_product></id_product>
	<id_product_attribute></id_product_attribute>
	<id_currency></id_currency>
	<id_country></id_country>
	<id_group></id_group>
	<id_customer></id_customer>
	<id_specific_price_rule></id_specific_price_rule>
	<price></price>
	<from_quantity></from_quantity>
	<reduction></reduction>
	<reduction_tax></reduction_tax>
	<reduction_type></reduction_type>
	<from></from>
	<to></to>
</specific_price>
</prestashop>



2019-04-22 18:08:42 [text] GET - url: /specific_prices/?display=full&filter[id_product]=[] RETURN HTTP BODY
<?xml version="1.0" encoding="UTF-8"?>
<prestashop xmlns:xlink="http://www.w3.org/1999/xlink">
<specific_prices>
</specific_prices>
</prestashop>



2019-04-22 18:10:12 [text] GET - url: /specific_prices?schema=blank RETURN HTTP BODY
<?xml version="1.0" encoding="UTF-8"?>
<prestashop xmlns:xlink="http://www.w3.org/1999/xlink">
<specific_price>
	<id></id>
	<id_shop_group></id_shop_group>
	<id_shop></id_shop>
	<id_cart></id_cart>
	<id_product></id_product>
	<id_product_attribute></id_product_attribute>
	<id_currency></id_currency>
	<id_country></id_country>
	<id_group></id_group>
	<id_customer></id_customer>
	<id_specific_price_rule></id_specific_price_rule>
	<price></price>
	<from_quantity></from_quantity>
	<reduction></reduction>
	<reduction_tax></reduction_tax>
	<reduction_type></reduction_type>
	<from></from>
	<to></to>
</specific_price>
</prestashop>



2019-04-22 18:10:13 [text] GET - url: /specific_prices/?display=full&filter[id_product]=[] RETURN HTTP BODY
<?xml version="1.0" encoding="UTF-8"?>
<prestashop xmlns:xlink="http://www.w3.org/1999/xlink">
<specific_prices>
</specific_prices>
</prestashop>



2019-04-22 19:27:04 [text] GET - url: /specific_prices?schema=blank RETURN HTTP BODY
<?xml version="1.0" encoding="UTF-8"?>
<prestashop xmlns:xlink="http://www.w3.org/1999/xlink">
<specific_price>
	<id></id>
	<id_shop_group></id_shop_group>
	<id_shop></id_shop>
	<id_cart></id_cart>
	<id_product></id_product>
	<id_product_attribute></id_product_attribute>
	<id_currency></id_currency>
	<id_country></id_country>
	<id_group></id_group>
	<id_customer></id_customer>
	<id_specific_price_rule></id_specific_price_rule>
	<price></price>
	<from_quantity></from_quantity>
	<reduction></reduction>
	<reduction_tax></reduction_tax>
	<reduction_type></reduction_type>
	<from></from>
	<to></to>
</specific_price>
</prestashop>



2019-04-22 19:27:08 [text] GET - url: /specific_prices/?display=full&filter[id_product]=[103854157] RETURN HTTP BODY
<?xml version="1.0" encoding="UTF-8"?>
<prestashop xmlns:xlink="http://www.w3.org/1999/xlink">
<specific_prices>
</specific_prices>
</prestashop>



